<svg width="44" height="28" viewBox="0 0 44 28" fill="none" xmlns="http://www.w3.org/2000/svg">
<path d="M2 2H42" stroke="#702E4F" stroke-width="4" stroke-miterlimit="10" stroke-linecap="round"/>
<path d="M2 14H42" stroke="#702E4F" stroke-width="4" stroke-miterlimit="10" stroke-linecap="round"/>
<path d="M2 26H42" stroke="#702E4F" stroke-width="4" stroke-miterlimit="10" stroke-linecap="round"/>
</svg>
