<svg width="321" height="317" viewBox="0 0 321 317" fill="none" xmlns="http://www.w3.org/2000/svg">
<path d="M57.4995 6.65024C57.4731 7.18088 57.3756 7.70557 57.2094 8.21024C57.0594 8.67024 56.9595 9.03021 56.8895 9.28021C56.8195 9.53021 56.7695 9.67024 56.7495 9.71024C56.5595 10.7102 56.3095 11.9202 55.9995 13.3902C55.6895 14.8602 55.3394 16.5802 54.9294 18.5602C54.5694 20.1269 54.1328 22.0736 53.6194 24.4002C53.0994 26.7102 52.4995 29.4002 51.8195 32.5602C51.5249 35.1003 51.0673 37.6189 50.4495 40.1002C50.1299 40.9397 49.5751 41.6692 48.8514 42.2013C48.1278 42.7334 47.266 43.0455 46.3694 43.1002C46.3694 42.8102 46.1394 41.5002 45.7794 39.1602C45.4194 36.8202 44.9195 33.4502 44.2495 29.0502C43.8428 26.1969 43.4195 23.6136 42.9795 21.3002C42.5395 18.9869 42.0961 16.9036 41.6494 15.0502C41.4194 14.0502 41.1995 13.2402 40.9995 12.5402C40.7995 11.8402 40.5995 11.2302 40.4195 10.7302C39.9395 9.42022 39.6895 8.73023 39.6895 8.64023C39.6895 8.30023 40.2095 7.86022 41.2495 7.32022C41.9191 6.89751 42.6675 6.61515 43.4495 6.49023L43.5294 6.70023C43.8194 7.47023 44.0895 8.31024 44.3595 9.21024C44.6295 10.1102 44.8995 11.0902 45.1695 12.1502C46.6928 18.664 47.8744 25.253 48.7094 31.8902L52.2195 15.9602C52.3395 15.4002 52.4894 14.7202 52.6494 13.9102C52.8094 13.1002 52.9895 12.1302 53.1895 11.0202C53.1895 10.7002 53.2795 10.3402 53.3495 9.94022C53.4195 9.54022 53.5195 9.08023 53.6395 8.58023C54.0698 8.01509 54.6332 7.56508 55.2794 7.27023C55.8847 6.87422 56.5659 6.60858 57.2794 6.49023C57.4394 6.52023 57.4995 6.56024 57.4995 6.65024Z" fill="#D84830"/>
<path d="M65.4404 20.65C65.4404 21.51 65.4404 22.83 65.4404 24.6C65.4404 26.37 65.3504 28.6 65.2804 31.36C65.0804 37.4733 64.9271 40.62 64.8204 40.8C64.3624 41.4005 63.7744 41.8893 63.1004 42.23C62.4709 42.6626 61.7597 42.962 61.0104 43.11C60.977 43.0794 60.95 43.0423 60.9312 43.0011C60.9123 42.9599 60.9018 42.9153 60.9004 42.87C60.9004 42.98 60.9004 42.98 60.9004 42.87C60.9454 42.6658 60.9755 42.4586 60.9904 42.25C60.9904 41.97 61.1204 39.87 61.3204 35.98C61.4404 33.21 61.5404 30.73 61.6004 28.55C61.6604 26.37 61.6904 24.44 61.6904 22.78C61.6904 20.11 61.5904 17.02 61.3704 13.5C61.3704 13.16 61.3704 12.73 61.2904 12.21C61.2104 11.69 61.2104 11.1 61.1604 10.42C61.0804 9.90001 61.0304 9.49002 61.0104 9.18002C60.9904 8.87002 61.0104 8.68 61.0104 8.59C61.0104 8.25 61.5404 7.82002 62.5904 7.30002C63.2788 6.9467 64.0074 6.67806 64.7604 6.5C65.0004 8.84 65.1704 11.19 65.2704 13.5C65.3704 15.81 65.4404 18.23 65.4404 20.65Z" fill="#D84830"/>
<path d="M85.4297 33.3701C85.4297 37.5001 85.0997 40.0801 84.4297 41.1201C83.9741 41.6754 83.3955 42.117 82.7398 42.4101C82.1344 42.7947 81.4514 43.0406 80.7398 43.1301C80.3158 42.4084 79.694 41.8233 78.9479 41.4441C78.2018 41.0648 77.3626 40.9073 76.5298 40.9901H75.5298C75.174 41.0211 74.8202 41.0712 74.4698 41.1401C74.3998 41.4801 73.8798 41.8901 72.9198 42.3501C72.2504 42.7191 71.5235 42.9727 70.7698 43.1001C70.7698 42.9201 70.7698 42.7001 70.7698 42.4201C70.7698 42.1401 70.7698 41.8001 70.8498 41.4201C70.9298 41.0401 70.9097 40.6901 70.9297 40.4201C70.9497 40.1501 70.9297 39.8901 70.9297 39.7001C70.9123 39.1709 70.8249 38.6463 70.6698 38.1401C70.5303 37.634 70.4464 37.1143 70.4198 36.5901C70.4198 36.3401 70.9598 35.9301 72.0398 35.3501C72.5398 35.1201 72.9598 34.9301 73.3098 34.7901C73.5838 34.6732 73.8685 34.5828 74.1598 34.5201C74.503 35.482 74.6657 36.4991 74.6398 37.5201C74.6398 37.7701 74.6398 38.0701 74.6398 38.4201C74.6398 38.7701 74.5798 39.1601 74.5398 39.5901C76.3373 39.1034 78.1805 38.8051 80.0398 38.7001C80.2698 38.7001 80.5098 38.7001 80.7398 38.7001L81.4597 38.8001C81.4597 38.1701 81.5298 37.5301 81.5598 36.8801C81.5898 36.2301 81.5598 35.5601 81.5598 34.8801C81.5598 34.0201 81.5598 33.1001 81.5598 32.1201C81.5598 31.1401 81.4997 30.1201 81.4597 28.9501C80.6797 28.2201 79.3198 27.8501 77.3898 27.8501C76.6698 27.8501 75.9398 27.8501 75.1898 27.9301C74.4398 28.0101 73.6598 28.0601 72.8498 28.1501C72.1498 28.5431 71.4042 28.8487 70.6298 29.0601V29.0601C70.6298 28.8601 70.6297 28.4901 70.6797 27.9601C70.7297 27.4301 70.7698 26.7101 70.8398 25.8101C71.0598 23.3401 71.1598 20.9901 71.1598 18.7601C71.2069 16.5538 71.0832 14.3472 70.7898 12.1601C70.7898 12.0301 70.7197 11.8301 70.6497 11.5401C70.5797 11.2501 70.4698 10.8801 70.3298 10.4201C70.1467 9.86363 70.039 9.28513 70.0098 8.70007C70.0098 8.46674 70.5098 8.03673 71.5098 7.41006C72.1061 6.97137 72.7872 6.66147 73.5098 6.50006C73.9898 6.50006 74.3298 7.50008 74.5098 9.37008C79.5098 7.45675 82.8598 6.50006 84.5598 6.50006C84.7173 6.49005 84.8749 6.51748 85.0198 6.58007C84.9259 6.74111 84.7958 6.87806 84.6398 6.98007C83.6826 7.87534 83.1152 9.11065 83.0598 10.4201C83.0715 11.5871 82.882 12.7474 82.4998 13.8501C82.1041 14.4549 81.5314 14.9229 80.8598 15.1901C80.6298 15.3101 80.3398 15.4501 79.9998 15.5901C79.6086 15.7568 79.2079 15.9005 78.7998 16.0201C78.7998 12.7101 79.6398 10.2401 81.2598 8.59005L78.4798 9.33007L74.4798 10.3901C74.6098 11.7801 74.6998 12.9701 74.7598 13.9601C74.8198 14.9501 74.8598 15.7401 74.8598 16.3401C74.8598 18.6201 74.6731 21.9101 74.2998 26.2101C76.3667 25.8239 78.4673 25.6463 80.5698 25.6801C82.1255 25.619 83.6747 25.9131 85.0998 26.5401C85.0998 26.8901 85.0998 27.3601 85.0998 27.9301C85.0998 28.5001 85.0997 29.1701 85.1797 29.9301C85.2597 30.6901 85.2498 31.3701 85.2798 31.9301C85.3098 32.4901 85.4297 32.9901 85.4297 33.3701Z" fill="#D84830"/>
<path d="M94.5204 20.6495C94.5204 21.5095 94.5204 22.8295 94.4604 24.5995C94.4004 26.3695 94.3805 28.5995 94.3005 31.3595C94.1071 37.4729 93.9571 40.6195 93.8505 40.7995C93.4073 41.3999 92.8371 41.895 92.1805 42.2495C91.551 42.6821 90.8398 42.9815 90.0905 43.1295C90.057 43.0989 90.0301 43.0618 90.0112 43.0206C89.9923 42.9794 89.9819 42.9348 89.9805 42.8895C89.9805 42.9995 89.9805 42.9995 89.9805 42.8895C89.9805 42.7795 90.0304 42.5795 90.0704 42.2695C90.1104 41.9595 90.1904 39.8895 90.3904 35.9995C90.5238 33.2328 90.6171 30.7562 90.6705 28.5695C90.7405 26.3895 90.7704 24.4595 90.7704 22.7995C90.7704 20.1329 90.6638 17.0395 90.4504 13.5195C90.4504 13.1795 90.4205 12.7495 90.3605 12.2295C90.3605 11.7095 90.2805 11.1195 90.2305 10.4395C90.1605 9.91951 90.1105 9.50952 90.0905 9.19952C90.0705 8.88952 90.0905 8.69953 90.0905 8.60953C90.0905 8.26953 90.6205 7.83952 91.6805 7.31952C92.3682 6.96464 93.097 6.69596 93.8505 6.51953C94.0805 8.85953 94.2505 11.2095 94.3605 13.5195C94.4705 15.8295 94.5204 18.2295 94.5204 20.6495Z" fill="#D84830"/>
<path d="M115.63 7.11005C115.325 7.51612 114.941 7.85627 114.5 8.11005C113.497 8.79078 112.351 9.23213 111.15 9.40005C110.52 9.49005 109.9 9.57004 109.28 9.63004L107.45 9.83005C107.54 11.06 107.6 12.27 107.65 13.45C107.7 14.63 107.72 15.78 107.72 16.91C107.72 18.41 107.72 20.07 107.59 21.91C107.46 23.75 107.38 25.69 107.21 27.84C107.06 29.66 106.91 31.48 106.75 33.28C106.59 35.08 106.44 36.9 106.29 38.73C106.27 39.5066 106.179 40.2797 106.02 41.04C105.627 41.6162 105.08 42.0702 104.44 42.35C103.817 42.7622 103.116 43.0445 102.38 43.1801C102.38 43.1801 102.62 40.58 103.1 35.54C103.39 32.54 103.6 29.67 103.74 26.94C103.88 24.21 103.96 21.6 103.96 19.1C103.96 17.47 103.96 15.93 103.88 14.48C103.8 13.03 103.74 11.66 103.61 10.35C101.226 10.6658 98.8255 10.8527 96.4205 10.91C96.186 10.9256 95.9509 10.8915 95.7305 10.81C95.8705 10.36 96.4805 9.89005 97.5505 9.39005C98.3096 9.0284 99.1083 8.75656 99.9305 8.58005V8.58005L101.41 8.52005C102 8.52005 102.7 8.52003 103.5 8.44003C104.037 8.02721 104.601 7.65294 105.19 7.32004C105.755 6.95091 106.382 6.68668 107.04 6.54004C107.19 6.54004 107.26 7.06004 107.26 8.10004C107.94 8.01004 108.79 7.90004 109.82 7.79004L113.4 7.34003C113.92 7.25003 114.65 7.15005 115.6 7.02005L115.63 7.11005Z" fill="#D84830"/>
<path d="M55.8394 58.55C55.8394 59.76 55.8394 61.2699 55.8394 63.0699C55.8394 64.8699 55.7694 66.9699 55.6894 69.3799C55.6094 71.7899 55.5694 73.9 55.5494 75.7C55.5294 77.5 55.5494 79 55.5494 80.19C55.5494 80.51 55.5494 80.9199 55.5494 81.3999C55.5494 81.8799 55.5494 82.4 55.5494 83.06C55.5494 83.72 55.5494 84.2399 55.5494 84.7299C55.5494 85.2199 55.5494 85.61 55.5494 85.93C55.5494 86.25 55.0294 86.6 53.9694 87.17C53.2959 87.5806 52.5643 87.8873 51.7994 88.0799C49.7194 85.0199 47.2694 83.49 44.4194 83.49C44.1919 83.4939 43.9662 83.5309 43.7494 83.5999V84.4599C43.7769 84.9389 43.7228 85.4191 43.5894 85.88C43.4794 86.27 42.9594 86.73 42.0094 87.25C41.3564 87.6114 40.6611 87.8902 39.9394 88.0799C39.9394 87.9399 39.9394 87.7299 39.9394 87.4599C39.9394 87.1899 39.9394 86.8599 39.9394 86.4599V84.8999C39.9394 84.0799 39.8794 82.84 39.7794 81.18C39.6794 79.52 39.6094 78.27 39.6094 77.45C39.6094 77.13 40.1594 76.6899 41.2494 76.1299C41.7494 75.8799 42.1794 75.6899 42.5394 75.5399C42.8048 75.4253 43.0837 75.3447 43.3694 75.3C43.4719 76.0828 43.532 76.8706 43.5494 77.6599C43.5494 78.8399 43.6194 80.43 43.6394 82.44C44.9426 81.6865 46.3984 81.2354 47.8994 81.12C49.2229 81.1352 50.5194 81.4972 51.6594 82.17C51.6594 81.17 51.6594 79.9599 51.7094 78.4499C51.7594 76.9399 51.7994 75.13 51.8694 73.02C51.9394 70.91 51.9894 69.2 52.0194 67.68C52.0494 66.16 52.0194 64.8899 52.0194 63.8499C52.0194 60.9033 51.9394 58.5533 51.7794 56.8C51.6894 55.74 51.6194 54.95 51.5794 54.42C51.5394 53.89 51.5094 53.6199 51.5094 53.5999C51.5094 53.3299 52.0394 52.9099 53.0894 52.3399C53.7456 51.9374 54.461 51.6405 55.2094 51.46C55.6963 53.7905 55.9077 56.1701 55.8394 58.55V58.55Z" fill="#D84830"/>
<path d="M76.5203 85.93C76.5203 86.23 75.9903 86.67 74.9403 87.25C74.2931 87.6595 73.5735 87.9412 72.8203 88.08C72.7103 88.08 72.6603 88.03 72.6603 87.94C72.6644 87.8579 72.6812 87.7769 72.7103 87.7C72.7415 87.6342 72.7585 87.5627 72.7603 87.49C72.7603 87.49 72.7603 87.23 72.6403 86.59C72.5203 85.95 72.4503 84.98 72.3103 83.68C71.945 80.3389 71.7548 76.981 71.7403 73.62C70.9203 74.03 69.8903 74.52 68.6403 75.1L64.2403 77.1L63.8503 81.54C63.7103 83.04 63.5603 84.54 63.3803 86.09C62.903 86.641 62.3085 87.0784 61.6403 87.37C61.0064 87.75 60.3024 87.9982 59.5703 88.1C59.7703 87.31 60.0603 84.61 60.4603 80C60.987 73.54 61.2536 68.2067 61.2603 64C61.2603 62 61.2103 60.24 61.1003 58.68C60.9903 57.12 60.8803 55.91 60.8203 55.08C60.7603 54.25 60.7203 53.77 60.7203 53.64C60.7203 53.32 61.2603 52.88 62.3303 52.3C63.0097 51.9421 63.7323 51.6732 64.4803 51.5C64.6003 52.66 64.7003 53.57 64.7603 54.23C64.8203 54.89 64.8503 55.32 64.8503 55.52C65.7459 55.3787 66.6338 55.1918 67.5103 54.96C68.0301 54.8 68.5353 54.5959 69.0203 54.35C69.6903 54.04 70.5403 53.61 71.5603 53.05C72.5803 52.49 73.2503 52.22 73.8903 51.95C74.3938 51.7186 74.9302 51.5668 75.4803 51.5C75.5749 51.7567 75.6289 52.0267 75.6403 52.3C75.6403 51.82 75.6136 53.35 75.5603 56.89C75.5003 60.43 75.4803 63.67 75.4803 66.6C75.4803 70.34 75.5503 73.6733 75.6903 76.6C75.8303 79.51 76.0503 82.03 76.3303 84.18C76.4003 84.64 76.4503 85.03 76.4803 85.33C76.5103 85.63 76.5203 85.79 76.5203 85.93ZM71.9303 53.8C71.1603 54.18 70.2003 54.62 69.0403 55.14C67.8803 55.66 66.5103 56.25 64.9303 56.91C64.9903 58.18 65.0103 59.81 65.0103 61.79C65.0103 63.9367 64.9636 66.1267 64.8703 68.36C64.777 70.5933 64.627 72.91 64.4203 75.31C64.6475 75.3836 64.8823 75.4305 65.1203 75.45C66.0736 75.45 68.2803 74.5633 71.7403 72.79C71.7403 71.93 71.7403 71.17 71.7403 70.51V66.03C71.7403 64.94 71.7403 63.67 71.7403 62.22C71.7403 60.77 71.7403 59.51 71.7903 58.43C71.8403 57.35 71.7903 56.43 71.7903 55.7C71.7903 55.31 71.7903 54.96 71.7903 54.65C71.7903 54.34 71.9003 54.05 71.9303 53.8V53.8Z" fill="#D84830"/>
<path d="M98.0996 56.4804C98.0996 57.2304 98.0996 58.1504 98.0996 59.2304C98.0996 60.3104 98.0296 61.5804 97.9596 63.0304C97.8463 65.9104 97.7896 68.0804 97.7896 69.5404V70.3004C97.7896 70.5804 97.7896 70.9304 97.7896 71.3004C97.7896 71.6704 97.7896 72.0705 97.7896 72.3705C97.7896 72.6705 97.7896 72.9304 97.7896 73.1304C97.7896 73.4804 97.2796 73.9404 96.2396 74.4904C95.8439 74.6943 95.4365 74.8745 95.0196 75.0304C94.7283 75.1401 94.4268 75.2205 94.1196 75.2704C92.4396 73.8004 89.7696 73.0704 86.1196 73.0704H85.9796C85.9796 73.4804 85.9796 74.1404 85.8996 75.0704C85.8196 76.0004 85.8096 77.1604 85.7396 78.6104C85.7396 79.7504 85.6696 80.7804 85.6496 81.7004C85.6296 82.6204 85.6496 83.4404 85.6496 84.1604C85.6781 84.7652 85.6037 85.3705 85.4296 85.9504C85.2896 86.3204 84.7596 86.7404 83.8496 87.2404C83.204 87.6271 82.4972 87.901 81.7596 88.0504C81.7596 87.6504 81.7596 86.9904 81.8096 86.0504C81.8596 85.1104 81.8996 83.9104 81.9696 82.4104C82.1196 79.7104 82.2196 77.3504 82.2896 75.3404C82.3596 73.3304 82.3996 71.6204 82.3996 70.2304C82.3996 68.1004 82.3996 66.2304 82.3996 64.7004C82.3996 63.1704 82.3396 61.8604 82.3096 60.8404C82.2116 59.0987 82.0247 57.3631 81.7496 55.6404C81.3196 54.0104 81.0996 53.3404 81.0996 53.6404C81.0996 53.3104 81.6196 52.8804 82.6596 52.3204C83.2975 51.8831 84.0195 51.5834 84.7796 51.4404C85.0996 51.4404 85.3796 52.5805 85.6296 54.8705C85.791 54.765 85.9617 54.6746 86.1396 54.6004C86.4096 54.4804 88.3496 53.9204 91.9596 52.9404C95.5696 51.9604 97.4496 51.4404 97.4896 51.4404C97.5296 51.4404 97.6796 51.5904 97.7796 51.8904C98.0637 53.4029 98.1711 54.9432 98.0996 56.4804ZM94.3996 59.7804C94.4055 57.7694 94.2348 55.7617 93.8896 53.7804L90.4696 54.7804L85.6596 56.1104C85.9396 63.9171 86.0729 68.9571 86.0596 71.2304C86.8796 71.1404 87.6496 71.0704 88.3496 71.0204C89.0496 70.9704 89.7196 70.9404 90.3496 70.9404C91.5839 70.9237 92.8167 71.0309 94.0296 71.2604C94.0296 70.6704 94.0296 69.9104 94.0796 68.9704C94.1296 68.0304 94.1696 66.9104 94.2396 65.6004C94.3096 64.2904 94.3596 63.2404 94.3896 62.2904C94.4196 61.3404 94.4096 60.4404 94.4096 59.7804H94.3996Z" fill="#D84830"/>
<path d="M118.5 85.93C118.5 86.23 117.97 86.67 116.91 87.25C116.266 87.6596 115.55 87.9414 114.8 88.08C114.69 88.08 114.64 88.03 114.64 87.94C114.639 87.8574 114.656 87.7754 114.69 87.7C114.704 87.6307 114.704 87.5593 114.69 87.49C114.69 87.49 114.69 87.23 114.57 86.59C114.45 85.95 114.38 84.98 114.24 83.68C113.864 80.3398 113.674 76.9813 113.67 73.62C112.85 74.03 111.81 74.52 110.56 75.1L106.16 77.1C106.04 78.5733 105.91 80.0533 105.77 81.54C105.64 83.04 105.48 84.54 105.3 86.09C104.827 86.646 104.232 87.0842 103.56 87.37C102.93 87.751 102.229 87.9994 101.5 88.1C101.69 87.31 101.99 84.61 102.38 80C102.92 73.54 103.187 68.2067 103.18 64C103.18 62 103.18 60.24 103.02 58.68C102.86 57.12 102.81 55.91 102.74 55.08C102.67 54.25 102.65 53.77 102.65 53.64C102.65 53.32 103.18 52.88 104.26 52.3C104.937 51.9441 105.656 51.6753 106.4 51.5C106.53 52.66 106.62 53.57 106.68 54.23C106.74 54.89 106.78 55.32 106.78 55.52C107.672 55.3785 108.557 55.1916 109.43 54.96C109.953 54.8005 110.462 54.5964 110.95 54.35C111.62 54.04 112.47 53.61 113.49 53.05C114.51 52.49 115.18 52.22 115.82 51.95C116.32 51.7188 116.853 51.567 117.4 51.5C117.499 51.7554 117.554 52.0261 117.56 52.3C117.56 51.82 117.533 53.35 117.48 56.89C117.427 60.43 117.4 63.6667 117.4 66.6C117.4 70.34 117.473 73.6733 117.62 76.6C117.76 79.51 117.97 82.03 118.26 84.18C118.33 84.64 118.38 85.03 118.41 85.33C118.44 85.63 118.5 85.79 118.5 85.93ZM113.91 53.8C113.14 54.18 112.18 54.62 111.01 55.14C109.84 55.66 108.48 56.25 106.91 56.91C106.97 58.18 106.99 59.81 106.99 61.79C106.99 63.9367 106.94 66.1267 106.84 68.36C106.74 70.6 106.6 72.92 106.4 75.31C106.627 75.3836 106.862 75.4305 107.1 75.45C108.1 75.45 110.25 74.56 113.72 72.79C113.72 71.93 113.72 71.17 113.72 70.51V66.03C113.72 64.94 113.72 63.67 113.72 62.22C113.72 60.77 113.72 59.51 113.72 58.43C113.72 57.35 113.72 56.43 113.72 55.7C113.72 55.31 113.72 54.96 113.72 54.65C113.72 54.34 113.87 54.05 113.91 53.8V53.8Z" fill="#D84830"/>
<path d="M139.899 85.8803C139.899 86.1903 139.379 86.6103 138.349 87.1703C137.983 87.3771 137.606 87.5641 137.219 87.7303L136.329 88.0803C136.086 87.4837 135.967 86.8441 135.979 86.2003C135.386 78.4803 135.092 72.587 135.099 68.5203C135.099 67.7003 135.099 66.6803 135.099 65.4503C135.099 64.2203 135.099 62.8003 135.179 61.1803C135.259 59.5603 135.239 58.1003 135.269 56.8903C135.299 55.6803 135.269 54.6503 135.269 53.8303C134.499 54.1903 133.539 54.6203 132.369 55.1303C131.199 55.6403 129.839 56.2103 128.269 56.8603C128.269 58.1503 128.349 59.7803 128.349 61.7703C128.349 63.157 128.299 64.7569 128.199 66.5703C128.099 68.3703 127.959 70.4203 127.759 72.7103C127.526 75.5303 127.339 77.8636 127.199 79.7103C127.059 81.5569 126.969 82.8903 126.929 83.7103C126.929 83.9903 126.929 84.3203 126.929 84.7103C126.929 85.1003 126.839 85.5203 126.759 86.0203C126.679 86.5203 126.049 86.8503 125.099 87.3403C124.734 87.5491 124.356 87.736 123.969 87.9003C123.672 88.0295 123.359 88.1202 123.039 88.1703C123.039 88.0303 123.099 87.3203 123.219 86.0403L123.789 80.4603C124.069 77.5303 124.289 74.6303 124.429 71.7503C124.569 68.8703 124.649 65.9803 124.649 63.0703C124.649 62.0703 124.649 61.2003 124.599 60.4403C124.549 59.6803 124.599 59.0203 124.509 58.4403C124.239 55.1203 124.109 53.5303 124.109 53.6703C124.109 53.3303 124.639 52.8903 125.689 52.3603C126.39 52.02 127.119 51.7423 127.869 51.5303C127.949 52.1303 128.019 52.7703 128.079 53.4403C128.139 54.1103 128.159 54.8303 128.159 55.6003L129.299 55.3603C129.759 55.2703 130.299 55.1503 130.869 55.0103C132.277 54.4649 133.655 53.8474 134.999 53.1603C136.196 52.4807 137.492 51.9915 138.839 51.7103L139.019 51.8503L138.839 66.4703C138.762 72.3496 139.056 78.228 139.719 84.0703C139.849 84.9503 139.899 85.5803 139.899 85.8803Z" fill="#D84830"/>
<path d="M49.2796 156.65C28.2796 137.43 19.5697 126.95 27.1397 113.55L37.6296 101.9C37.6296 101.9 27.7296 126.37 62.0996 143.23L49.2796 156.65Z" fill="#B25679"/>
<path d="M164.01 312.15L172.16 316.23C217 279.53 248.45 282.45 282.57 282.46L304.17 260.12C202.64 255.23 164.01 312.15 164.01 312.15Z" fill="#B25679"/>
<path d="M106.929 150.23L102.859 167.71C147.859 186.04 169.859 202.26 171.579 215.08C204.189 184.99 124.169 157.23 106.929 150.23Z" fill="#B25679"/>
<path d="M153.91 230.61C153.91 230.61 177.4 225.61 179.34 198.78C175.07 210.78 164.61 211.38 160.34 212.56L153.91 230.61Z" fill="#EA94AD"/>
<path d="M59.5701 267.11C54.9101 252.36 45.5701 222.85 108.48 217.41C136.38 215 167.48 198 175.26 181.69V199.55C168.26 225.95 119.36 232.94 105.38 234.5C91.4001 236.06 57.62 244.59 74.71 294.29L59.5701 267.11Z" fill="#B25679"/>
<path d="M101.69 235.02C96.2603 231.043 91.555 226.162 87.7803 220.59C47.8903 230.14 55.5003 254.24 59.5703 267.11L74.7103 294.29C58.9803 248.56 86.3303 237.67 101.69 235.02Z" fill="#B25679"/>
<path d="M233.369 46.5803C233.369 46.5803 243.159 35.7203 245.369 36.9403C247.579 38.1603 239.229 48.2303 239.229 48.2303L233.369 46.5803Z" fill="#FC6D6D"/>
<path d="M319.511 154.57C279.921 111.43 281.191 110.47 224.741 68.1501C168.291 25.8301 170.381 31.6501 115.301 1.08008C187.221 61.3701 256.881 121.23 319.511 154.57Z" fill="#933434"/>
<path d="M132.93 183.4L232.34 54.1201L233.68 54.6401L134.83 185.16L132.93 183.4Z" fill="#FF9999"/>
<path d="M179.34 126.38L233.68 54.6301L232.33 54.1201L177.41 125.56C178.1 125.83 178.71 126.09 179.34 126.38Z" fill="#C46565"/>
<path d="M182.527 42.6683L180.586 121.524L182.405 121.569L184.346 42.7131L182.527 42.6683Z" fill="#C46565"/>
<path d="M163.131 29.0996L164.951 29.1396L182.971 121.73L181.161 121.69L163.131 29.0996Z" fill="#C46565"/>
<path d="M285.251 115.95L284.561 114.22L181.811 120.2L182.511 121.94L285.251 115.95Z" fill="#C46565"/>
<path d="M205.344 57.5473L180.689 121.242L182.387 121.899L207.041 58.2042L205.344 57.5473Z" fill="#C46565"/>
<path d="M239.747 80.8961L181.049 120.787L182.072 122.292L240.77 82.4014L239.747 80.8961Z" fill="#C46565"/>
<path d="M181.27 120.72L255.82 96.0801L256.39 97.8101L181.84 122.45L181.27 120.72Z" fill="#C46565"/>
<path d="M115.26 1.04004C197.51 50.93 247.17 83.6501 319.51 154.57L238.86 45.23L115.26 1.04004Z" fill="#FC6D6D"/>
<path d="M287.51 111.23C267.22 95.5701 240.71 79.9301 222.18 67.6101C201.54 53.8801 181.98 34.1801 163.95 18.4801L115.26 1.08008C197.51 50.9701 247.17 83.6901 319.51 154.61L287.51 111.23Z" fill="#E04C4C"/>
<path d="M138.179 175.93L142.579 175.98L132.209 190.86L128.289 187.04L138.179 175.93Z" fill="#825050"/>
<path d="M238.86 45.2298L156.74 22.5698L135.67 9.7998L238.86 45.2298Z" fill="#FFA28D"/>
<path d="M160.25 25.6904L184.66 40.4204L238.86 45.2304L160.25 25.6904Z" fill="#FFA28D"/>
<path d="M187.74 42.8301L204.51 55.1801L238.86 45.2301L187.74 42.8301Z" fill="#FFA28D"/>
<path d="M223.08 67.8405L207.82 57.6005L238.86 45.2305L223.08 67.8405Z" fill="#FFA28D"/>
<path d="M242.449 83.2605L226.359 70.9405L238.859 45.2305L242.449 83.2605Z" fill="#FFA28D"/>
<path d="M260.259 97.7005L244.869 85.1905L238.859 45.2305L260.259 97.7005Z" fill="#FFA28D"/>
<path d="M262.671 99.8604L277.161 112.34L239.961 46.4805L262.671 99.8604Z" fill="#FFA28D"/>
<path d="M280.709 114.31L301.159 131.15L238.859 45.2305L280.709 114.31Z" fill="#FFA28D"/>
<g style="mix-blend-mode:overlay" opacity="0.4">
<path d="M208.199 34.2305C220.807 54.2655 239.913 69.3639 262.319 77.0005L238.859 45.2305L208.199 34.2305Z" fill="#FFE8E3"/>
</g>
<path d="M114.83 1.35962L115.56 0.0996094C116.65 0.739609 240.47 72.8996 320.79 153.94L319.52 155.23C239.49 74.2296 115.92 1.98962 114.83 1.35962Z" fill="#FF9999"/>
<path d="M109.029 201.85L108.499 202.02L77.0391 98.9903L77.5691 98.8203L109.029 201.85Z" fill="#A55E46"/>
<path d="M99.5462 94.0172L98.9883 94.0654L108.311 201.923L108.869 201.875L99.5462 94.0172Z" fill="#A55E46"/>
<path d="M58.4239 106.196L57.9375 106.453L108.423 202.085L108.909 201.829L58.4239 106.196Z" fill="#A55E46"/>
<path d="M38.7759 117.593L38.3535 117.945L108.554 202.112L108.976 201.76L38.7759 117.593Z" fill="#A55E46"/>
<path d="M108.599 202.15L21.6895 131.3L22.0294 130.87L108.939 201.72L108.599 202.15Z" fill="#A55E46"/>
<path d="M9.01864 149.997L8.76562 150.485L108.645 202.236L108.898 201.747L9.01864 149.997Z" fill="#A55E46"/>
<path d="M108.969 201.65L108.449 201.48L142.539 99.3398L143.059 99.5099L108.969 201.65Z" fill="#A55E46"/>
<path d="M108.601 201.3L108.051 201.24L119.561 94.3096L120.111 94.3696L108.601 201.3Z" fill="#A55E46"/>
<path d="M108.561 202.02L0.550781 173.2L0.690796 172.66L108.701 201.49L108.561 202.02Z" fill="#A55E46"/>
<path d="M84.3796 200.35C86.3796 185.67 97.6496 172.06 122.14 177.35L157.91 113.48C157.91 113.48 114.22 77.7501 53.1796 112.58C-1.0304 143.52 0.429595 196.37 0.429595 196.37L84.3796 200.35Z" fill="#A55E46"/>
<path d="M84.4695 200.3C86.4695 185.79 97.7294 172.3 122.009 177.46L157.319 114.01C157.319 114.01 112.529 80.2198 53.9695 113.64C1.31945 143.64 1.18945 196.64 1.18945 196.64L84.4695 200.3Z" fill="#FFE2C0"/>
<path d="M108.58 201.58L0.490234 200.58L0.620239 196.11L108.36 200.93L157.82 113.48L161.37 115.98L108.58 201.58Z" fill="#A55E46"/>
<path d="M117.4 175.91L141.05 106.11L156.71 114.03L121.65 176.67L117.4 175.91Z" fill="#FFCBAE"/>
<path d="M106.62 175.7L99.9004 99.5195L118.87 100.14L110.89 175.65L106.62 175.7Z" fill="#FFCBAE"/>
<path d="M96.7903 179.09L60.2402 110.86L78.7102 103.65L101.14 177.24L96.7903 179.09Z" fill="#FFCBAE"/>
<path d="M89.8102 186.1L27.9102 135.35L42.2101 121.94L92.7502 182.34L89.8102 186.1Z" fill="#FFCBAE"/>
<path d="M85.1195 195.45L6.01953 173.93L14.7896 153.34L87.0595 190.21L85.1195 195.45Z" fill="#FFCBAE"/>
<g style="mix-blend-mode:overlay" opacity="0.4">
<path d="M73.0995 138.93C101.369 117.31 133.729 109.21 156.249 115.93L157.319 114.02C157.319 114.02 112.529 80.2296 53.9695 113.65C1.31945 143.65 1.18945 196.65 1.18945 196.65L30.8595 197.94C35.7895 177.93 50.6695 156.07 73.0995 138.93Z" fill="#FFE8E3"/>
</g>
<path d="M77.75 104.02L101.21 178.48L101.87 178.1L78.71 103.65L77.75 104.02Z" fill="#F9C1A2"/>
<path d="M59.8203 111.09L96.7603 180.3L97.4203 179.92L60.8103 110.71L59.8203 111.09Z" fill="#F9C1A2"/>
<path d="M41.75 121.41L92.59 183.31L93.25 182.94L42.78 120.98L41.75 121.41Z" fill="#F9C1A2"/>
<path d="M27.0703 135.83L89.5003 186.82L90.1703 186.45L27.3803 134.7L27.0703 135.83Z" fill="#F9C1A2"/>
<path d="M13.9004 153.92L87.1604 191.35L87.5804 190.55L14.0904 152.94L13.9004 153.92Z" fill="#F9C1A2"/>
<path d="M5.43945 174.21L85.1794 195.98L85.4395 195.36L5.55945 173.4L5.43945 174.21Z" fill="#F9C1A2"/>
<path d="M117.749 100.51L110.869 176.3L111.549 176.39L118.649 100.14L117.749 100.51Z" fill="#F9C1A2"/>
<path d="M140.82 105.44L116.76 176.6L117.45 176.69L141.96 105.75L140.82 105.44Z" fill="#F9C1A2"/>
<path d="M99.8301 99.6304L106.22 176.81L107.02 176.67L100.52 99.1504L99.8301 99.6304Z" fill="#F9C1A2"/>
<path d="M149.189 115.08C148.846 114.479 148.332 113.994 147.713 113.685C147.094 113.376 146.397 113.257 145.711 113.344C145.025 113.431 144.379 113.719 143.857 114.173C143.334 114.626 142.958 115.224 142.775 115.891C142.592 116.559 142.611 117.265 142.829 117.921C143.048 118.578 143.456 119.155 144.002 119.58C144.548 120.004 145.208 120.257 145.898 120.307C146.588 120.357 147.278 120.201 147.879 119.86C148.686 119.399 149.276 118.636 149.522 117.74C149.767 116.844 149.648 115.888 149.189 115.08V115.08Z" fill="#ED5F48"/>
<path d="M130.101 108.79C129.756 108.19 129.242 107.705 128.622 107.397C128.003 107.089 127.306 106.972 126.619 107.06C125.933 107.148 125.288 107.437 124.766 107.892C124.244 108.346 123.869 108.945 123.687 109.613C123.506 110.28 123.526 110.987 123.746 111.643C123.966 112.299 124.375 112.876 124.922 113.299C125.47 113.723 126.13 113.974 126.82 114.023C127.511 114.071 128.2 113.914 128.801 113.57C129.2 113.342 129.551 113.037 129.832 112.673C130.114 112.31 130.321 111.894 130.442 111.45C130.563 111.006 130.595 110.542 130.536 110.086C130.477 109.63 130.33 109.189 130.101 108.79V108.79Z" fill="#ED5F48"/>
<path d="M111.609 106.84C111.267 106.238 110.754 105.751 110.135 105.441C109.517 105.13 108.819 105.01 108.132 105.096C107.445 105.182 106.799 105.47 106.276 105.923C105.752 106.376 105.375 106.975 105.191 107.642C105.008 108.31 105.027 109.017 105.245 109.674C105.464 110.331 105.873 110.909 106.419 111.333C106.966 111.758 107.627 112.011 108.317 112.06C109.008 112.11 109.698 111.953 110.299 111.61C111.103 111.149 111.692 110.389 111.938 109.495C112.183 108.602 112.065 107.647 111.609 106.84V106.84Z" fill="#ED5F48"/>
<path d="M92.7691 108.04C92.426 107.438 91.9123 106.952 91.2927 106.642C90.6731 106.333 89.9756 106.214 89.2885 106.301C88.6014 106.388 87.9556 106.677 87.4329 107.132C86.9101 107.586 86.5338 108.185 86.3517 108.853C86.1696 109.521 86.1898 110.229 86.4098 110.885C86.6298 111.542 87.0397 112.119 87.5876 112.542C88.1355 112.966 88.7968 113.218 89.4878 113.265C90.1787 113.313 90.8682 113.154 91.4691 112.81C91.8682 112.583 92.2185 112.279 92.5 111.916C92.7815 111.553 92.9886 111.138 93.1093 110.695C93.2301 110.252 93.2622 109.789 93.2038 109.333C93.1454 108.878 92.9977 108.438 92.7691 108.04V108.04Z" fill="#ED5F48"/>
<path d="M75.5601 111.71C75.2171 111.108 74.7032 110.622 74.0837 110.312C73.4641 110.003 72.7666 109.884 72.0795 109.971C71.3925 110.058 70.7467 110.347 70.2239 110.801C69.7011 111.256 69.3248 111.855 69.1427 112.523C68.9606 113.191 68.9808 113.898 69.2008 114.555C69.4208 115.212 69.8307 115.789 70.3786 116.212C70.9265 116.636 71.5878 116.887 72.2787 116.935C72.9697 116.983 73.6592 116.824 74.2601 116.48C74.6592 116.253 75.0096 115.949 75.291 115.586C75.5725 115.223 75.7796 114.808 75.9004 114.365C76.0211 113.922 76.0533 113.459 75.9949 113.003C75.9365 112.548 75.7887 112.108 75.5601 111.71V111.71Z" fill="#ED5F48"/>
<path d="M58.3097 120.49C57.9712 119.884 57.4602 119.392 56.8416 119.077C56.223 118.762 55.5247 118.638 54.8355 118.721C54.1463 118.804 53.4974 119.09 52.9712 119.543C52.445 119.996 52.0653 120.595 51.8804 121.264C51.6955 121.933 51.7137 122.642 51.9327 123.301C52.1517 123.959 52.5617 124.538 53.1104 124.963C53.6592 125.388 54.322 125.641 55.0145 125.688C55.7071 125.736 56.3981 125.576 56.9997 125.23C57.7955 124.769 58.3786 124.014 58.6236 123.128C58.8685 122.241 58.7558 121.294 58.3097 120.49V120.49Z" fill="#ED5F48"/>
<path d="M41.5695 132.8C41.2252 132.2 40.7108 131.715 40.0911 131.407C39.4715 131.099 38.7744 130.981 38.088 131.069C37.4016 131.157 36.7567 131.447 36.2348 131.901C35.7129 132.356 35.3375 132.955 35.1559 133.622C34.9743 134.29 34.9947 134.997 35.2145 135.653C35.4344 136.309 35.8438 136.885 36.3911 137.309C36.9383 137.732 37.5988 137.984 38.2892 138.032C38.9795 138.081 39.6686 137.923 40.2695 137.58C40.6699 137.353 41.0215 137.048 41.3038 136.685C41.5861 136.321 41.7937 135.905 41.9145 135.461C42.0354 135.016 42.0671 134.552 42.0079 134.096C41.9486 133.639 41.7997 133.199 41.5695 132.8V132.8Z" fill="#ED5F48"/>
<path d="M29.5899 147.49C29.2478 146.888 28.7349 146.401 28.1159 146.09C27.497 145.78 26.7998 145.66 26.1128 145.746C25.4257 145.832 24.7795 146.119 24.256 146.573C23.7325 147.026 23.3552 147.624 23.1718 148.292C22.9885 148.96 23.0073 149.667 23.2259 150.324C23.4444 150.981 23.853 151.558 24.3999 151.983C24.9467 152.408 25.6072 152.661 26.2979 152.71C26.9886 152.759 27.6783 152.602 28.2799 152.26C29.0837 151.799 29.6726 151.038 29.918 150.145C30.1634 149.251 30.0454 148.297 29.5899 147.49V147.49Z" fill="#ED5F48"/>
<path d="M20.3707 165.9C20.0274 165.299 19.5138 164.814 18.8948 164.505C18.2757 164.196 17.579 164.078 16.8927 164.164C16.2063 164.251 15.5611 164.54 15.0385 164.993C14.5159 165.446 14.1394 166.044 13.9565 166.712C13.7736 167.379 13.7926 168.085 14.0111 168.742C14.2295 169.398 14.6376 169.975 15.1838 170.4C15.73 170.825 16.3898 171.078 17.0798 171.128C17.7699 171.178 18.4592 171.022 19.0607 170.68C19.4611 170.453 19.8126 170.148 20.0952 169.785C20.3778 169.422 20.5859 169.006 20.7076 168.562C20.8293 168.118 20.8621 167.654 20.8043 167.197C20.7465 166.741 20.5992 166.3 20.3707 165.9V165.9Z" fill="#ED5F48"/>
<path d="M15.7394 183.81C15.3952 183.209 14.8807 182.725 14.261 182.417C13.6414 182.109 12.9443 181.991 12.2579 182.079C11.5715 182.167 10.9267 182.457 10.4048 182.911C9.88288 183.366 9.5074 183.965 9.32579 184.632C9.14419 185.3 9.16462 186.007 9.38448 186.663C9.60433 187.319 10.0137 187.895 10.561 188.319C11.1082 188.742 11.7688 188.994 12.4591 189.042C13.1494 189.091 13.8385 188.933 14.4394 188.59C14.8398 188.362 15.1914 188.058 15.4737 187.695C15.7561 187.331 15.9636 186.915 16.0845 186.47C16.2053 186.026 16.237 185.562 16.1778 185.106C16.1186 184.649 15.9696 184.209 15.7394 183.81V183.81Z" fill="#ED5F48"/>
<path d="M0.670258 196.93L103.35 201.53L108.5 201.58L157.87 114.3L161.03 116.54L161.37 115.98L157.82 113.48L108.36 200.93L0.620239 196.11L0.490234 200.58H0.560242L0.670258 196.93Z" fill="#7F3E2D"/>
<path d="M111.679 198.23C111.271 197.521 110.662 196.949 109.929 196.585C109.196 196.222 108.373 196.082 107.561 196.185C106.75 196.288 105.987 196.629 105.368 197.164C104.749 197.699 104.303 198.405 104.084 199.194C103.866 199.982 103.885 200.817 104.14 201.595C104.395 202.372 104.873 203.057 105.516 203.563C106.159 204.069 106.937 204.374 107.752 204.439C108.568 204.504 109.384 204.327 110.099 203.93C110.581 203.664 111.005 203.304 111.347 202.871C111.688 202.439 111.94 201.943 112.087 201.412C112.234 200.881 112.274 200.326 112.204 199.78C112.134 199.234 111.955 198.707 111.679 198.23V198.23Z" fill="#A55E46"/>
<path d="M110.1 199.23C109.875 198.837 109.539 198.52 109.135 198.318C108.73 198.116 108.274 198.038 107.825 198.095C107.376 198.152 106.954 198.34 106.612 198.637C106.27 198.933 106.024 199.324 105.904 199.76C105.784 200.197 105.796 200.659 105.939 201.088C106.081 201.518 106.348 201.895 106.705 202.173C107.062 202.452 107.493 202.618 107.944 202.651C108.395 202.684 108.846 202.583 109.24 202.36C109.503 202.212 109.733 202.013 109.919 201.775C110.104 201.537 110.241 201.265 110.32 200.974C110.4 200.683 110.422 200.379 110.384 200.08C110.346 199.781 110.25 199.492 110.1 199.23V199.23Z" fill="#EFBD59"/>
<path d="M256.591 169.61L255.381 169.31L271.991 122.03L273.201 122.34L256.591 169.61Z" fill="#6B4B3F"/>
<path d="M279.46 177.15L278.25 176.84C283.47 161.96 288.42 131.39 269.73 122.11L270.39 120.98C289.78 130.61 284.8 161.93 279.46 177.15Z" fill="#6B4B3F"/>
<path d="M234.8 165.87L233.59 165.57C238.93 150.36 254.4 121.69 274.68 122.07L274.54 123.32C255.1 122.96 240.02 151 234.8 165.87Z" fill="#6B4B3F"/>
<path d="M281.131 170.52L236.471 159.26L231.221 174.21L275.871 185.48L281.131 170.52Z" fill="#8E675B"/>
<path d="M257.24 169.42C247.95 167.42 240.24 163.82 236.24 159.99L231.24 174.21L275.9 185.48L281.15 170.48L278.62 169.85C273.31 171.23 265.58 171.23 257.24 169.42Z" fill="#6B4B3F"/>
<path d="M245.06 278.31L197.07 261.45L192.67 273.98L239.91 292.96L245.06 278.31Z" fill="#4C3028"/>
<path d="M280.32 176.68L231.48 164.01C231.48 164.01 199.24 158.27 182.25 204.5C165.26 250.73 194.17 269.29 194.17 269.29L241.77 286.01C241.77 286.01 280.82 290.01 297.77 239.43C314.57 189.12 280.32 176.68 280.32 176.68Z" fill="#FFC5AE"/>
<path d="M276.911 175.8L234.651 164.8C234.651 164.8 206.421 160.12 189.411 206.64C172.401 253.16 197.271 270.34 197.271 270.34L238.451 284.81C238.451 284.81 272.361 287.03 289.281 236.81C306.101 186.91 276.911 175.8 276.911 175.8Z" fill="#FFD0C0"/>
<path d="M272.1 174.55L239.2 166.01C239.2 166.01 216.77 162.85 199.73 209.79C182.69 256.73 201.73 271.93 201.73 271.93L233.76 283.23C233.76 283.23 260.51 283.02 277.45 233.34C294.33 183.81 272.1 174.55 272.1 174.55Z" fill="#FFDCD2"/>
<path d="M265.391 172.81L245.651 167.68C245.651 167.68 231.651 166.74 214.551 214.27C197.451 261.8 207.981 274.14 207.981 274.14L227.221 280.89C227.221 280.89 244.221 277.37 261.151 228.37C278.101 179.54 265.391 172.81 265.391 172.81Z" fill="#FFE8E3"/>
<g style="mix-blend-mode:multiply" opacity="0.4">
<path d="M243.36 241.99C214.65 241.99 190.03 229.99 179.57 212.9C168.74 253.08 194.17 269.29 194.17 269.29L241.77 286.01C241.77 286.01 280.82 290.01 297.77 239.43C299.96 233.064 301.413 226.468 302.1 219.77C289.85 233.14 268.1 242.02 243.36 241.99Z" fill="#FFC5AE"/>
</g>
<path d="M275.821 123.76C276.111 122.64 274.571 121.28 272.381 120.76C270.191 120.24 268.181 120.64 267.891 121.76C267.601 122.88 269.141 124.25 271.331 124.76C273.521 125.27 275.531 124.88 275.821 123.76Z" fill="#8E675B"/>
<g style="mix-blend-mode:overlay" opacity="0.4">
<path d="M231.479 164.01C231.479 164.01 213.479 160.81 197.289 178.49C209.669 188.23 231.199 195.23 255.949 196.23C269.764 196.944 283.604 195.452 296.949 191.81C293.2 185.072 287.344 179.75 280.279 176.66L231.479 164.01Z" fill="#FFE8E3"/>
</g>
<path d="M217.52 276.87L255.17 170.37C255.17 170.37 236.37 238.63 217.52 276.87Z" fill="#F7BDAD"/>
<path d="M215.891 214.74C232.941 167.2 246.221 167.89 246.221 167.89L255.771 170.31L245.651 167.68C245.651 167.68 231.651 166.74 214.551 214.27C197.451 261.8 207.981 274.14 207.981 274.14L208.571 274.34C208.571 274.34 198.781 262.41 215.891 214.74Z" fill="#F7BDAD"/>
<path d="M265.39 172.81L264.97 172.7C266.2 173.58 275.67 182.09 259.81 227.9C242.81 276.9 226.68 280.71 226.68 280.71L227.22 280.89C227.22 280.89 244.22 277.37 261.15 228.37C278.1 179.54 265.39 172.81 265.39 172.81Z" fill="#F7BDAD"/>
<path d="M191.191 207.29C208.191 160.77 235.451 165.11 235.451 165.11L257.291 170.7L234.651 164.83C234.651 164.83 206.421 160.15 189.411 206.67C172.401 253.19 197.271 270.37 197.271 270.37L198.071 270.66C198.071 270.66 174.161 253.93 191.191 207.29Z" fill="#FFC5AE"/>
<path d="M276.91 175.8L276.59 175.72C279.84 177.2 303.24 189.72 287.51 236.25C270.56 286.42 237.76 284.6 237.76 284.6L238.45 284.84C238.45 284.84 272.36 287.06 289.28 236.84C306.1 186.91 276.91 175.8 276.91 175.8Z" fill="#FFC5AE"/>
<path d="M186.431 203.359C187.021 201.689 187.131 200.199 186.691 200.049C186.251 199.899 185.421 201.129 184.841 202.799C184.261 204.469 184.131 205.949 184.561 206.109C184.991 206.269 185.841 205.029 186.431 203.359Z" fill="#ED5F48"/>
<path d="M293.25 240.89C293.84 239.21 293.96 237.73 293.52 237.57C293.08 237.41 292.25 238.65 291.66 240.33C291.07 242.01 290.95 243.48 291.39 243.64C291.83 243.8 292.66 242.56 293.25 240.89Z" fill="#ED5F48"/>
<path d="M196.791 207.68C197.371 206 197.031 204.36 196.031 204.01C195.031 203.66 193.731 204.73 193.151 206.4C192.571 208.07 192.901 209.72 193.901 210.07C194.901 210.42 196.201 209.35 196.791 207.68Z" fill="#ED5F48"/>
<path d="M284.1 238.34C284.69 236.66 284.35 235.02 283.35 234.67C282.35 234.32 281.05 235.39 280.46 237.06C279.87 238.73 280.21 240.38 281.22 240.73C282.23 241.08 283.47 240.01 284.1 238.34Z" fill="#ED5F48"/>
<path d="M209.15 212.7C209.73 211.03 209.15 209.31 207.94 208.87C206.73 208.43 205.19 209.43 204.6 211.1C204.01 212.77 204.6 214.49 205.81 214.93C207.02 215.37 208.56 214.38 209.15 212.7Z" fill="#ED5F48"/>
<path d="M270.66 234.31C271.25 232.64 270.71 230.92 269.46 230.48C268.21 230.04 266.71 231.04 266.12 232.72C265.53 234.4 266.12 236.1 267.33 236.54C268.54 236.98 270.1 235.98 270.66 234.31Z" fill="#ED5F48"/>
<path d="M228.5 219.5C228.661 218.938 228.653 218.341 228.479 217.782C228.304 217.224 227.971 216.729 227.519 216.358C227.067 215.987 226.516 215.756 225.935 215.694C225.354 215.632 224.767 215.74 224.246 216.007C223.726 216.274 223.295 216.687 223.006 217.196C222.718 217.704 222.584 218.286 222.621 218.87C222.659 219.453 222.866 220.013 223.218 220.48C223.569 220.948 224.05 221.302 224.6 221.5C225.383 221.749 226.232 221.678 226.962 221.304C227.693 220.929 228.246 220.28 228.5 219.5V219.5Z" fill="#ED5F48"/>
<path d="M250.32 227.16C250.481 226.598 250.473 226.001 250.299 225.443C250.125 224.884 249.791 224.389 249.339 224.018C248.887 223.647 248.337 223.416 247.755 223.354C247.174 223.292 246.587 223.401 246.067 223.667C245.546 223.934 245.115 224.347 244.827 224.856C244.538 225.364 244.404 225.946 244.442 226.53C244.479 227.113 244.687 227.673 245.038 228.14C245.39 228.608 245.87 228.962 246.42 229.16C247.203 229.409 248.052 229.338 248.783 228.964C249.513 228.589 250.066 227.941 250.32 227.16V227.16Z" fill="#ED5F48"/>
<path d="M194.66 274.45C194.689 274.1 194.618 273.749 194.458 273.436C194.297 273.124 194.052 272.863 193.75 272.683C193.449 272.503 193.103 272.411 192.752 272.417C192.401 272.424 192.059 272.528 191.764 272.719C191.469 272.91 191.234 273.18 191.085 273.498C190.935 273.816 190.878 274.169 190.919 274.518C190.96 274.866 191.099 275.197 191.318 275.471C191.537 275.745 191.829 275.953 192.16 276.07C192.706 276.18 193.273 276.072 193.74 275.769C194.208 275.467 194.538 274.993 194.66 274.45V274.45Z" fill="#4C3028"/>
<path d="M240.91 293.65C240.939 293.3 240.868 292.949 240.708 292.637C240.547 292.324 240.302 292.063 240 291.883C239.699 291.703 239.353 291.611 239.002 291.617C238.651 291.624 238.309 291.728 238.014 291.919C237.719 292.11 237.484 292.38 237.335 292.698C237.185 293.016 237.128 293.369 237.169 293.718C237.21 294.067 237.349 294.397 237.568 294.671C237.787 294.945 238.079 295.153 238.41 295.27C238.955 295.375 239.52 295.265 239.986 294.963C240.452 294.661 240.783 294.19 240.91 293.65V293.65Z" fill="#4C3028"/>
<path d="M217.56 284.54C217.589 284.19 217.519 283.839 217.358 283.527C217.197 283.215 216.952 282.954 216.651 282.774C216.349 282.594 216.004 282.502 215.652 282.508C215.301 282.515 214.959 282.619 214.664 282.81C214.37 283.001 214.134 283.271 213.985 283.589C213.836 283.906 213.778 284.26 213.82 284.609C213.861 284.957 213.999 285.288 214.218 285.562C214.438 285.836 214.729 286.043 215.06 286.16C215.606 286.271 216.173 286.163 216.641 285.86C217.108 285.557 217.438 285.084 217.56 284.54V284.54Z" fill="#4C3028"/>
<g style="mix-blend-mode:multiply" opacity="0.4">
<path d="M225.351 264.78C229.501 255.78 242.351 260.06 235.791 268.86C230.251 276.27 227.661 279.25 223.691 277.46C220.921 276.23 220.881 274.51 225.351 264.78Z" fill="#FFC5AE"/>
</g>
<g style="mix-blend-mode:multiply" opacity="0.4">
<path d="M239.799 272.93C244.799 267.47 258.909 269.23 247.399 276.47C240.399 280.91 237.749 282.29 235.849 280.23C234.739 279.01 235.099 278.06 239.799 272.93Z" fill="#FFC5AE"/>
</g>
<g style="mix-blend-mode:multiply" opacity="0.4">
<path d="M219.639 264.73C223.109 254.9 205.119 248.6 207.369 261.65C208.739 269.65 209.159 271.13 213.059 272.8C215.419 273.81 217.979 271.32 219.639 264.73Z" fill="#FFC5AE"/>
</g>
<g style="mix-blend-mode:multiply" opacity="0.4">
<path d="M203.231 258.62C202.781 248.21 193.601 244.55 195.851 257.62C197.231 265.62 200.621 268.95 202.651 268.99C204.921 269.01 203.411 262.94 203.231 258.62Z" fill="#FFC5AE"/>
</g>
<g style="mix-blend-mode:multiply" opacity="0.3">
<path d="M221.411 262.1L239.151 290.02L231.101 260.56L235.531 259.75L242.441 258.6L253.441 248.79L295.101 212.33C276.641 216.84 255.341 226.42 233.901 238.77L230.331 238.09L223.641 235.58L260.641 165.35L258.311 164.77L258.481 164.29L226.101 198.59L238.681 159.8L237.381 159.48C238.581 156.74 240.001 153.82 241.611 150.86L242.311 148.99L237.931 155.23C236.301 158.6 234.931 161.81 233.931 164.61L231.831 164.07L191.831 222.07L188.931 221.48L187.581 228.23L181.481 237.06L177.391 239.45C177.481 240.05 177.561 240.65 177.651 241.23C177.651 241.23 177.651 241.32 177.651 241.37C177.791 242.15 177.941 242.92 178.111 243.67C178.122 243.751 178.139 243.831 178.161 243.91C178.321 244.64 178.501 245.34 178.691 246.03C178.691 246.13 178.691 246.22 178.771 246.31C178.961 246.99 179.161 247.65 179.371 248.31L179.461 248.59C179.671 249.23 179.901 249.85 180.131 250.46C180.158 250.546 180.191 250.629 180.231 250.71C180.461 251.32 180.711 251.92 180.961 252.5L181.051 252.7C181.311 253.29 181.581 253.86 181.851 254.42L181.911 254.52C182.481 255.69 183.091 256.78 183.711 257.8V257.88C184.011 258.37 184.311 258.88 184.621 259.29L184.711 259.43C185.001 259.87 185.301 260.29 185.591 260.7L185.711 260.86C186.001 261.26 186.291 261.64 186.581 262.01L186.701 262.16C186.981 262.53 187.271 262.88 187.551 263.22L187.661 263.35L188.511 264.35L188.601 264.44C188.881 264.76 189.161 265.05 189.431 265.33L189.481 265.39C190.051 265.97 190.581 266.48 191.071 266.93H191.121C191.351 267.15 191.581 267.34 191.791 267.53L191.861 267.59L192.441 268.08L192.511 268.14L193.001 268.53H193.071L193.471 268.83H193.521L193.811 269.05C193.877 269.088 193.941 269.132 194.001 269.18H194.071H194.201L193.411 271.43C193.004 271.389 192.594 271.473 192.236 271.671C191.879 271.87 191.591 272.173 191.411 272.54L193.291 275.82C193.81 275.551 194.222 275.114 194.461 274.58L199.531 276.58L196.881 266.23L221.411 262.1Z" fill="#AA3529"/>
</g>
<path d="M156.391 222.51L189.651 131.14L118.721 224.06L156.391 222.51Z" fill="#B73321"/>
<path d="M137.96 203.85L161.62 198.39L190 130.58L119.09 223.43L126.65 219.88L137.96 203.85Z" fill="#D84830"/>
<path d="M159.199 232.92C190.499 213.92 223.009 198.51 250.139 191.69L190.419 239.8L159.199 232.92Z" fill="#D84830"/>
<path d="M166.17 233.1C197.48 214.1 226.04 200.1 250.17 191.69L190.45 239.8L166.17 233.1Z" fill="#F25F41"/>
<path d="M83.8306 241.5C83.6606 240.5 64.5605 174.44 64.5605 174.44L68.1706 172.83L113.621 252.32L83.8306 241.5Z" fill="#F25F41"/>
<path d="M98.5095 231.81L67.6895 174.42L68.5294 173.19L102.899 232.14L98.5095 231.81Z" fill="#D84830"/>
<path d="M83.8301 241.5C84.1301 241.5 100.62 228.6 100.62 228.6L105.79 234.46L83.8301 241.5Z" fill="#D84830"/>
<path d="M130.45 215.88L83.8301 241.5L106.13 255.59L190.19 240.18L206.15 227.08L130.45 215.88Z" fill="#D84830"/>
<path d="M134.891 219.28L168.751 225.94L168.541 219.36L135.221 217.1L134.891 219.28Z" fill="#B73321"/>
<path d="M72.981 180.82L49.261 182.55L47.2109 178.02L67.5509 169.46L72.981 180.82Z" fill="#F25F41"/>
<path d="M143.96 248.59L139.08 238.98L135.75 217.34L129.65 239.55L133.48 250.01L143.96 248.59Z" fill="#B73321"/>
<path d="M182.67 241.55L182.63 235.35L199.07 225.69L174.97 231.07L171.75 243.72L182.67 241.55Z" fill="#B73321"/>
<path d="M146.86 278.37L121.43 240.25L129.27 205.31L161.78 210.97L135.75 217.34L135.26 239.28L146.86 278.37Z" fill="#F25F41"/>
<path d="M129.27 205.31L135.859 217.99L151.39 208.5L129.27 205.31Z" fill="#D84830"/>
<path d="M186.46 271.74L165.43 243.44L167.3 218.45L199.98 225.76L179.15 232.94L177.24 242.53L186.46 271.74Z" fill="#F25F41"/>
<path d="M106.13 255.59L83.8301 241.5L123.85 220.9L119.2 241.19L127.34 251.54L106.13 255.59Z" fill="#F25F41"/>
<path d="M73.5792 182.01L71.3792 181.33L68.7992 176.59L50.4492 177.22L68.3492 169.69L73.5792 182.01Z" fill="#D84830"/>
<path d="M47.2109 178.02L67.481 174.62L82.8109 161.3L47.2109 178.02Z" fill="#F25F41"/>
<path d="M166.95 222.88L195.6 222.68L176.42 220.18L166.41 217.26L166.95 222.88Z" fill="#D84830"/>
<path d="M165.95 222.83L215.43 138.43L134.65 217.86L165.95 222.83Z" fill="#F25F41"/>
<path d="M124.25 220.33L123.79 221.7L85.9901 242.82L83.8301 241.5L124.25 220.33Z" fill="#FF8164"/>
<path d="M136.12 262.23L122.58 240L129.27 205.31L121.43 240.25L136.12 262.23Z" fill="#FF8164"/>
<path d="M135.761 218.24L153.911 220.86L136.981 216.63L215.431 138.43L134.971 216.24L135.761 218.24Z" fill="#FF8164"/>
<path d="M165.289 243.23L166.949 222.88L166.239 242.95L178.089 260.36L165.289 243.23Z" fill="#FF8164"/>
<path d="M47.2109 178.02L82.8109 161.3L47.8109 179.26L47.2109 178.02Z" fill="#FF8164"/>
<path d="M58.1602 262.06C82.2302 317.58 211.29 239.84 304.16 260.12L282.56 282.46C170.44 264.79 112.28 320.62 71.9802 295.46C66.1602 285.66 60.1002 272.4 58.1602 262.06Z" fill="#EA94AD"/>
<path d="M234.379 259.09C234.439 260.65 234.479 262.23 234.479 263.81C234.475 268.881 234.161 273.947 233.539 278.98C249.942 278.714 266.338 279.878 282.539 282.46L304.139 260.12C282.299 255.35 258.419 256.01 234.379 259.09Z" fill="#D37594"/>
<g style="mix-blend-mode:multiply" opacity="0.5">
<path d="M30.0996 132.71C46.8296 114.01 80.1496 126.53 117.83 147.33L126.83 135.52C126.83 135.52 80.7196 100.09 40.2296 121.46C35.3396 125.15 32.2496 128.47 30.0996 132.71Z" fill="#AA3529"/>
</g>
<path d="M27.0996 113.55C44.4296 94.1895 78.9396 107.15 117.96 128.69L127.28 116.47C127.28 116.47 79.5196 79.7795 37.5896 101.9C32.6196 105.72 29.4096 109.17 27.0996 113.55Z" fill="#EA94AD"/>
<path d="M87.6602 97.5596C92.1402 100.99 94.6602 104.96 94.6602 109.19C94.6147 111.543 93.8698 113.831 92.5201 115.76C100.67 119.46 109.2 123.86 117.96 128.69L127.28 116.47C115.315 107.84 101.894 101.435 87.6602 97.5596V97.5596Z" fill="#D37594"/>
<path d="M302.53 261.81L304.17 260.12C211.29 239.84 82.2299 317.58 58.1699 262.06C58.4699 263.7 58.8799 265.43 59.3799 267.19C86.9299 316.23 211.63 242.88 302.53 261.81Z" fill="#FFBBD2"/>
</svg>
